explore_bank
…
Read Data

data <- readr::read_delim("bank-additional.csv", 
                   ";", escape_double = FALSE, trim_ws = TRUE)

data %>% describe_tbl(target = y)

## 4 119 observations with 21 variables; 451 targets (10.9%)
## 0 variables containing missings (NA)
## 0 variables with no variance

data %>% describe()

## # A tibble: 21 x 8
##    variable    type     na na_pct unique   min  mean   max
##    <chr>       <chr> <int>  <dbl>  <int> <dbl> <dbl> <dbl>
##  1 age         dbl       0      0     67    18  40.1    88
##  2 job         chr       0      0     12    NA  NA      NA
##  3 marital     chr       0      0      4    NA  NA      NA
##  4 education   chr       0      0      8    NA  NA      NA
##  5 default     chr       0      0      3    NA  NA      NA
##  6 housing     chr       0      0      3    NA  NA      NA
##  7 loan        chr       0      0      3    NA  NA      NA
##  8 contact     chr       0      0      2    NA  NA      NA
##  9 month       chr       0      0     10    NA  NA      NA
## 10 day_of_week chr       0      0      5    NA  NA      NA
## # ... with 11 more rows
…
